2012-07-14 12:39:04.492089 - bk_venta - 46004343 Denegación de servicios.
2012-07-14 12:39:37.488239 - bk_venta - 46004343 Denegación de servicios.
2012-07-14 12:40:19.037532 - bk_venta - 46004343 Denegación de servicios.
2012-07-14 12:57:15.199423 - bk_venta - 46004343 Denegación de servicios.
2012-07-14 12:58:11.649264 - bk_venta - 46004343 Denegación de servicios.
2012-07-14 12:58:31.745458 - bk_venta - 46004343 Denegación de servicios.
2012-07-14 12:58:48.118515 - bk_venta - 46004343 Denegación de servicios.
2012-07-14 13:04:13.522240 - bk_venta - 46004343 Denegación de servicios.
2012-07-14 13:05:24.419661 - bk_venta - 46004343 Denegación de servicios.
2012-08-02 23:37:35.904951 - bk_venta - 12345678 Denegación de servicios.
2012-08-06 13:10:13.145838 - especialidad_registro - usuario Denegación de servicios.
2012-08-06 13:11:02.671528 - especialidad_registro - usuario Denegación de servicios.
2012-08-07 01:51:48.432754 - AttributeError, /home/ray/Documentos/dev/remoto/makako/farmacia/views_stock.py, RStock, 127
2012-08-08 17:25:33.328538 - UnboundLocalError, /home/ray/Documentos/dev/remoto/makako/farmacia/views_stock.py, get_bk_Stock, 239
2012-08-08 21:57:33.559939 - usuario - AnonymousUser No inicio sesión.
2012-08-08 22:04:00.906652 - usuario - 12345678 Denegación de servicios.
2012-08-08 22:05:56.743592 - usuario - 12345678 Denegación de servicios.
2012-08-08 22:07:28.136609 - usuario - AnonymousUser No inicio sesión.
2012-08-08 22:10:01.390116 - usuario - AnonymousUser No inicio sesión.
2012-08-08 22:10:46.380308 - usuario - AnonymousUser No inicio sesión.
2012-08-08 22:24:17.249488 - usuario - AnonymousUser No inicio sesión.
2012-08-08 22:35:05.760718 - usuario - AnonymousUser No inicio sesión.
2012-08-09 00:44:54.308733 - AttributeError, /home/ray/Documentos/dev/remoto/makako/farmacia/views.py, getAplicacion, 72
2012-08-09 00:44:54.334676 - usuario - AnonymousUser No inicio sesión.
